output.vcd
$date
  Sun Nov 21 23:06:01 2021
$end
$version
  GHDL v0
$end
$timescale
  1 fs
$end
$scope module standard $end
$upscope $end
$scope module std_logic_1164 $end
$upscope $end
$scope module numeric_std $end
$upscope $end
$scope module std_logic_arith $end
$upscope $end
$scope module boxer1_tb $end
$var reg 1 ! clock $end
$var reg 1 " reset $end
$var reg 1 # up_down $end
$var reg 4 $ counter[3:0] $end
$scope module uut $end
$var reg 1 % top_clk $end
$var reg 1 & top_clear $end
$var reg 16 ' mainbus[15:0] $end
$var reg 8 ( reg_a_out[7:0] $end
$var reg 8 ) reg_b_out[7:0] $end
$var reg 8 * reg_c_out[7:0] $end
$var reg 8 + reg_o_out[7:0] $end
$var reg 8 , reg_h_out[7:0] $end
$var reg 8 - reg_l_out[7:0] $end
$var reg 8 . alu_out[7:0] $end
$var reg 8 / keyboard_out[7:0] $end
$var reg 16 0 pc_out[15:0] $end
$var reg 16 1 mar_out[15:0] $end
$var reg 12 2 ir_out[11:0] $end
$var reg 8 3 qram_out[7:0] $end
$var reg 12 4 ram_out[11:0] $end
$var reg 12 5 rom_out[11:0] $end
$var reg 22 6 control_word[21:0] $end
$var reg 16 7 decoder_address[15:0] $end
$var reg 1 8 ram_en $end
$var reg 1 9 rom_en $end
$var reg 1 : qram_en $end
$var reg 1 ; ram_wr_en $end
$var reg 1 < qram_wr_en $end
$var reg 1 = alu_setting_en $end
$var reg 1 > new_term_line_en $end
$var reg 1 ? write_term_en $end
$var reg 4 @ ring_counter_out[3:0] $end
$scope module control_matrix0 $end
$var reg 22 A control_word[21:0] $end
$var reg 4 B instruction[3:0] $end
$var reg 4 C ring_count[3:0] $end
$var reg 1 D clk $end
$upscope $end
$scope module ring_counter0 $end
$var reg 4 E count[3:0] $end
$var reg 1 F clk $end
$var reg 4 G init_count[3:0] $end
$var reg 4 H internal_count[3:0] $end
$upscope $end
$scope module program_counter0 $end
$var reg 16 I data_in[15:0] $end
$var reg 1 J load_enable $end
$var reg 1 K clear $end
$var reg 1 L count_enable $end
$var reg 1 M clk $end
$var reg 16 N current_count[15:0] $end
$var reg 16 O internal_count[15:0] $end
$upscope $end
$scope module rom0 $end
$var reg 1 P clock $end
$var reg 1 Q rom_enable $end
$var reg 12 R address[11:0] $end
$var reg 12 S data_output[11:0] $end
$upscope $end
$scope module quick_ram $end
$var reg 1 T clock $end
$var reg 1 U read_enable $end
$var reg 1 V write_enable $end
$var reg 8 W address[7:0] $end
$var reg 8 X data_input[7:0] $end
$var reg 8 Y data_output[7:0] $end
$comment ram is not handled $end
$upscope $end
$scope module ram0 $end
$var reg 1 Z clock $end
$var reg 1 [ read_enable $end
$var reg 1 \ write_enable $end
$var reg 12 ] address[11:0] $end
$var reg 12 ^ data_input[11:0] $end
$var reg 12 _ data_output[11:0] $end
$comment ram is not handled $end
$upscope $end
$scope module memory_decoder0 $end
$var reg 16 ` address_in[15:0] $end
$var reg 1 a qram_en $end
$var reg 1 b alu_setting_en $end
$var reg 1 c new_term_line_en $end
$var reg 1 d write_term_en $end
$var reg 1 e rom_en $end
$var reg 1 f ram_en $end
$var reg 16 g address_out[15:0] $end
$upscope $end
$scope module reg_a $end
$var reg 8 h data_in[7:0] $end
$var reg 1 i enable $end
$var reg 1 j clear $end
$var reg 1 k clk $end
$var reg 8 l data_out[7:0] $end
$upscope $end
$scope module reg_b $end
$var reg 8 m data_in[7:0] $end
$var reg 1 n enable $end
$var reg 1 o clear $end
$var reg 1 p clk $end
$var reg 8 q data_out[7:0] $end
$upscope $end
$scope module reg_c $end
$var reg 8 r data_in[7:0] $end
$var reg 1 s enable $end
$var reg 1 t clear $end
$var reg 1 u clk $end
$var reg 8 v data_out[7:0] $end
$upscope $end
$scope module reg_o $end
$var reg 8 w data_in[7:0] $end
$var reg 1 x enable $end
$var reg 1 y clear $end
$var reg 1 z clk $end
$var reg 8 { data_out[7:0] $end
$upscope $end
$scope module reg_h $end
$var reg 8 | data_in[7:0] $end
$var reg 1 } enable $end
$var reg 1 !" clear $end
$var reg 1 "" clk $end
$var reg 8 #" data_out[7:0] $end
$upscope $end
$scope module reg_l $end
$var reg 8 $" data_in[7:0] $end
$var reg 1 %" enable $end
$var reg 1 &" clear $end
$var reg 1 '" clk $end
$var reg 8 (" data_out[7:0] $end
$upscope $end
$scope module mar $end
$var reg 16 )" data_in[15:0] $end
$var reg 1 *" enable $end
$var reg 1 +" clear $end
$var reg 1 ," clk $end
$var reg 16 -" data_out[15:0] $end
$upscope $end
$scope module ir $end
$var reg 12 ." data_in[11:0] $end
$var reg 1 /" enable $end
$var reg 1 0" clear $end
$var reg 1 1" clk $end
$var reg 12 2" data_out[11:0] $end
$upscope $end
$scope module bus_mux0 $end
$var reg 8 3" reg_a_data[7:0] $end
$var reg 8 4" reg_b_data[7:0] $end
$var reg 8 5" reg_c_data[7:0] $end
$var reg 8 6" reg_o_data[7:0] $end
$var reg 8 7" reg_h_data[7:0] $end
$var reg 8 8" reg_l_data[7:0] $end
$var reg 8 9" alu_data[7:0] $end
$var reg 8 :" keyboard_data[7:0] $end
$var reg 16 ;" pc_data[15:0] $end
$var reg 16 <" mar_data[15:0] $end
$var reg 12 =" ir_data[11:0] $end
$var reg 12 >" mem_data[11:0] $end
$var reg 22 ?" control_word[21:0] $end
$var reg 16 @" bus_out[15:0] $end
$var reg 1 A" clk $end
$upscope $end
$upscope $end
$upscope $end
$enddefinitions $end
#0
0!
0"
0#
bUUUU $
0%
0&
bUUUUUUUUUUUUUUUU '
bUUUUUUUU (
bUUUUUUUU )
bUUUUUUUU *
bUUUUUUUU +
bUUUUUUUU ,
bUUUUUUUU -
bUUUUUUUU .
bUUUUUUUU /
b0000000100000000 0
bUUUUUUUUUUUUUUUU 1
bUUUUUUUUUUUU 2
bUUUUUUUU 3
bUUUUUUUUUUUU 4
bUUUUUUUUUUUU 5
b0000000000000000000000 6
bXXXXXXXXXXXXXXXX 7
18
09
0:
0;
0<
0=
0>
0?
b0001 @
b0000000000000000000000 A
bUUUU B
b0001 C
0D
b0001 E
0F
b0001 G
b0010 H
b0000000000000000 I
0J
0K
0L
0M
b0000000100000000 N
b0000000100000000 O
0P
1Q
bXXXXXXXXXXXX R
bUUUUUUUUUUUU S
0T
1U
0V
bXXXXXXXX W
bUUUUUUUU X
bUUUUUUUU Y
0Z
1[
0\
bXXXXXXXXXXXX ]
bUUUUUUUUUUUU ^
bUUUUUUUUUUUU _
bUUUUUUUUUUUUUUUU `
0a
0b
0c
0d
0e
1f
bXXXXXXXXXXXXXXXX g
bUUUUUUUU h
0i
0j
0k
bUUUUUUUU l
bUUUUUUUU m
0n
0o
0p
bUUUUUUUU q
bUUUUUUUU r
0s
0t
0u
bUUUUUUUU v
bUUUUUUUU w
0x
0y
0z
bUUUUUUUU {
bUUUUUUUU |
0}
0!"
0""
bUUUUUUUU #"
bUUUUUUUU $"
0%"
0&"
0'"
bUUUUUUUU ("
b0000000100000000 )"
1*"
0+"
0,"
bUUUUUUUUUUUUUUUU -"
bUUUUUUUUUUUU ."
0/"
00"
01"
bUUUUUUUUUUUU 2"
bUUUUUUUU 3"
bUUUUUUUU 4"
bUUUUUUUU 5"
bUUUUUUUU 6"
bUUUUUUUU 7"
bUUUUUUUU 8"
bUUUUUUUU 9"
bUUUUUUUU :"
b0000000100000000 ;"
bUUUUUUUUUUUUUUUU <"
bUUUUUUUUUUUU ="
bUUUUUUUUUUUU >"
b0000000000000000000000 ?"
bUUUUUUUUUUUUUUUU @"
0A"
#10000000
1!
1%
b0000000100000000 1
b001100000000 5
b0100000000000010000000 6
b0000000000000000 7
08
19
b0010 @
b0100000000000010000000 A
b0010 C
1D
b0010 E
1F
b0100 H
1M
1P
b000000000000 R
b001100000000 S
1T
b00000000 W
1Z
b000000000000 ]
b0000000100000000 `
1e
0f
b0000000000000000 g
1k
1p
1u
1z
1""
1'"
1,"
b0000000100000000 -"
11"
b0000000100000000 <"
b001100000000 >"
b0100000000000010000000 ?"
1A"
#20000000
0!
1"
0%
1&
b0000000100000000 '
b00000000 (
b00000000 )
b00000000 *
b00000000 +
b00000000 ,
b00000000 -
b0000000000000000 1
b000000000000 2
b1000000000000000011000 6
09
1:
b0100 @
b1000000000000000011000 A
b0000 B
b0100 C
0D
b0100 E
0F
b1000 H
1L
0M
0P
0T
b00000000 X
0Z
b000100000000 ^
b0000000000000000 `
1a
0e
b00000000 h
1j
0k
b00000000 l
b00000000 m
1o
0p
b00000000 q
b00000000 r
1t
0u
b00000000 v
b00000000 w
1y
0z
b00000000 {
b00000000 |
1!"
0""
b00000000 #"
b00000000 $"
1&"
0'"
b00000000 ("
1+"
0,"
b0000000000000000 -"
b000100000000 ."
1/"
10"
01"
b000000000000 2"
b00000000 3"
b00000000 4"
b00000000 5"
b00000000 6"
b00000000 7"
b00000000 8"
b0000000000000000 <"
b000000000000 ="
b1000000000000000011000 ?"
b0000000100000000 @"
0A"
#30000000
1!
1%
b0000001100000000 '
b0000000100000001 0
b0000000000000000000000 6
b1000 @
b0000000000000000000000 A
b1000 C
1D
b1000 E
1F
b0001 H
0L
1M
b0000000100000001 N
b0000000100000001 O
1P
1T
1Z
b001100000000 ^
1k
1p
1u
1z
1""
1'"
b0000000100000001 )"
1,"
b001100000000 ."
0/"
11"
b0000000100000001 ;"
b0000000000000000000000 ?"
b0000001100000000 @"
1A"
#40000000
0!
0"
0%
0&
b0001 @
b0001 C
0D
b0001 E
0F
b0010 H
0M
0P
0T
0Z
0j
0k
0o
0p
0t
0u
0y
0z
0!"
0""
0&"
0'"
0+"
0,"
00"
01"
0A"
#50000000
1!
1%
b0000000100000001 1
b0100000000000010000000 6
b0000000000000001 7
19
0:
b0010 @
b0100000000000010000000 A
b0010 C
1D
b0010 E
1F
b0100 H
1M
1P
b000000000001 R
1T
b00000001 W
1Z
b000000000001 ]
b0000000100000001 `
0a
1e
b0000000000000001 g
1k
1p
1u
1z
1""
1'"
1,"
b0000000100000001 -"
11"
b0000000100000001 <"
b0100000000000010000000 ?"
1A"
#60000000
0!
0%
b0000000100000001 '
b1000000000000000011000 6
b0100 @
b1000000000000000011000 A
b0100 C
0D
b0100 E
0F
b1000 H
1L
0M
0P
0T
b00000001 X
0Z
b000100000001 ^
b00000001 h
0k
b00000001 m
0p
b00000001 r
0u
b00000001 w
0z
b00000001 |
0""
b00000001 $"
0'"
0,"
b000100000001 ."
1/"
01"
b1000000000000000011000 ?"
b0000000100000001 @"
0A"
#70000000
1!
1%
b0000001100000000 '
b0000000100000010 0
b000100000001 2
b001100000001 5
b0000000000000000000000 6
b1000 @
b0000000000000000000000 A
b0001 B
b1000 C
1D
b1000 E
1F
b0001 H
0L
1M
b0000000100000010 N
b0000000100000010 O
1P
b001100000001 S
1T
b00000000 X
1Z
b001100000000 ^
b00000000 h
1k
b00000000 m
1p
b00000000 r
1u
b00000000 w
1z
b00000000 |
1""
b00000000 $"
1'"
b0000000100000010 )"
1,"
b001100000000 ."
0/"
11"
b000100000001 2"
b0000000100000010 ;"
b000100000001 ="
b001100000001 >"
b0000000000000000000000 ?"
b0000001100000000 @"
1A"
#80000000
0!
0%
b0010000000000000010000 6
b0001 @
b0010000000000000010000 A
b0001 C
0D
b0001 E
0F
b0010 H
0M
0P
0T
0Z
1i
0k
0p
0u
0z
0""
0'"
0,"
01"
b0010000000000000010000 ?"
0A"
#90000000
1!
1%
b0000001100000001 '
b0000000100000010 1
b0100000000000010000000 6
b0000000000000010 7
b0010 @
b0100000000000010000000 A
b0010 C
1D
b0010 E
1F
b0100 H
1M
1P
b000000000010 R
1T
b00000010 W
b00000001 X
1Z
b000000000010 ]
b001100000001 ^
b0000000100000010 `
b0000000000000010 g
b00000001 h
0i
1k
b00000001 m
1p
b00000001 r
1u
b00000001 w
1z
b00000001 |
1""
b00000001 $"
1'"
1,"
b0000000100000010 -"
b001100000001 ."
11"
b0000000100000010 <"
b0100000000000010000000 ?"
b0000001100000001 @"
1A"
#100000000
0!
0%
b0000000100000010 '
b1000000000000000011000 6
b0100 @
b1000000000000000011000 A
b0100 C
0D
b0100 E
0F
b1000 H
1L
0M
0P
0T
b00000010 X
0Z
b000100000010 ^
b00000010 h
0k
b00000010 m
0p
b00000010 r
0u
b00000010 w
0z
b00000010 |
0""
b00000010 $"
0'"
0,"
b000100000010 ."
1/"
01"
b1000000000000000011000 ?"
b0000000100000010 @"
0A"
#110000000
1!
1%
b0000001100000001 '
b0000000100000011 0
b000100000010 2
b001100000010 5
b0000000000010110000000 6
b1000 @
b0000000000010110000000 A
b1000 C
1D
b1000 E
1F
b0001 H
0L
1M
b0000000100000011 N
b0000000100000011 O
1P
b001100000010 S
1T
b00000001 X
1Z
b001100000001 ^
b00000001 h
1k
b00000001 m
1p
b00000001 r
1u
b00000001 w
1z
b00000001 |
1""
b00000001 $"
1'"
b0000000100000011 )"
1,"
b001100000001 ."
0/"
11"
b000100000010 2"
b0000000100000011 ;"
b000100000010 ="
b001100000010 >"
b0000000000010110000000 ?"
b0000001100000001 @"
1A"
#120000000
0!
0%
b0000000000000001 '
b0010000000000000010000 6
b0001 @
b0010000000000000010000 A
b0001 C
0D
b0001 E
0F
b0010 H
0M
0P
0T
0Z
b000000000001 ^
1i
0k
0p
0u
0z
0""
0'"
0,"
b000000000001 ."
01"
b0010000000000000010000 ?"
b0000000000000001 @"
0A"
#130000000
1!
1%
b0000001100000010 '
b00000001 (
b0000000100000011 1
b0100000000000010000000 6
b0000000000000011 7
b0010 @
b0100000000000010000000 A
b0010 C
1D
b0010 E
1F
b0100 H
1M
1P
b000000000011 R
1T
b00000011 W
b00000010 X
1Z
b000000000011 ]
b001100000010 ^
b0000000100000011 `
b0000000000000011 g
b00000010 h
0i
1k
b00000001 l
b00000010 m
1p
b00000010 r
1u
b00000010 w
1z
b00000010 |
1""
b00000010 $"
1'"
1,"
b0000000100000011 -"
b001100000010 ."
11"
b00000001 3"
b0000000100000011 <"
b0100000000000010000000 ?"
b0000001100000010 @"
1A"
#140000000
0!
0%
b0000000100000011 '
b1000000000000000011000 6
b0100 @
b1000000000000000011000 A
b0100 C
0D
b0100 E
0F
b1000 H
1L
0M
0P
0T
b00000011 X
0Z
b000100000011 ^
b00000011 h
0k
b00000011 m
0p
b00000011 r
0u
b00000011 w
0z
b00000011 |
0""
b00000011 $"
0'"
0,"
b000100000011 ."
1/"
01"
b1000000000000000011000 ?"
b0000000100000011 @"
0A"
#150000000
1!
1%
b0000001100000010 '
b0000000100000100 0
b000100000011 2
b001100000011 5
b0000000000010110000000 6
b1000 @
b0000000000010110000000 A
b1000 C
1D
b1000 E
1F
b0001 H
0L
1M
b0000000100000100 N
b0000000100000100 O
1P
b001100000011 S
1T
b00000010 X
1Z
b001100000010 ^
b00000010 h
1k
b00000010 m
1p
b00000010 r
1u
b00000010 w
1z
b00000010 |
1""
b00000010 $"
1'"
b0000000100000100 )"
1,"
b001100000010 ."
0/"
11"
b000100000011 2"
b0000000100000100 ;"
b000100000011 ="
b001100000011 >"
b0000000000010110000000 ?"
b0000001100000010 @"
1A"
#160000000
0!
0%
b0000000000000010 '
b0010000000000000010000 6
b0001 @
b0010000000000000010000 A
b0001 C
0D
b0001 E
0F
b0010 H
0M
0P
0T
0Z
b000000000010 ^
1i
0k
0p
0u
0z
0""
0'"
0,"
b000000000010 ."
01"
b0010000000000000010000 ?"
b0000000000000010 @"
0A"
#170000000
1!
1%
b0000001100000011 '
b00000010 (
b0000000100000100 1
b0100000000000010000000 6
b0000000000000100 7
b0010 @
b0100000000000010000000 A
b0010 C
1D
b0010 E
1F
b0100 H
1M
1P
b000000000100 R
1T
b00000100 W
b00000011 X
1Z
b000000000100 ]
b001100000011 ^
b0000000100000100 `
b0000000000000100 g
b00000011 h
0i
1k
b00000010 l
b00000011 m
1p
b00000011 r
1u
b00000011 w
1z
b00000011 |
1""
b00000011 $"
1'"
1,"
b0000000100000100 -"
b001100000011 ."
11"
b00000010 3"
b0000000100000100 <"
b0100000000000010000000 ?"
b0000001100000011 @"
1A"
#180000000
0!
0%
b0000000100000100 '
b1000000000000000011000 6
b0100 @
b1000000000000000011000 A
b0100 C
0D
b0100 E
0F
b1000 H
1L
0M
0P
0T
b00000100 X
0Z
b000100000100 ^
b00000100 h
0k
b00000100 m
0p
b00000100 r
0u
b00000100 w
0z
b00000100 |
0""
b00000100 $"
0'"
0,"
b000100000100 ."
1/"
01"
b1000000000000000011000 ?"
b0000000100000100 @"
0A"
#190000000
1!
1%
b0000001100000011 '
b0000000100000101 0
b000100000100 2
b0000000000010110000000 6
b1000 @
b0000000000010110000000 A
b1000 C
1D
b1000 E
1F
b0001 H
0L
1M
b0000000100000101 N
b0000000100000101 O
1P
1T
b00000011 X
1Z
b001100000011 ^
b00000011 h
1k
b00000011 m
1p
b00000011 r
1u
b00000011 w
1z
b00000011 |
1""
b00000011 $"
1'"
b0000000100000101 )"
1,"
b001100000011 ."
0/"
11"
b000100000100 2"
b0000000100000101 ;"
b000100000100 ="
b0000000000010110000000 ?"
b0000001100000011 @"
1A"
#200000000
0!
0%
b0000000000000011 '
b0010000000000000010000 6
b0001 @
b0010000000000000010000 A
b0001 C
0D
b0001 E
0F
b0010 H
0M
0P
0T
0Z
b000000000011 ^
1i
0k
0p
0u
0z
0""
0'"
0,"
b000000000011 ."
01"
b0010000000000000010000 ?"
b0000000000000011 @"
0A"
#210000000
1!
1%
b0000001100000011 '
b00000011 (
b0000000100000101 1
b0100000000000010000000 6
b0000000000000101 7
b0010 @
b0100000000000010000000 A
b0010 C
1D
b0010 E
1F
b0100 H
1M
1P
b000000000101 R
1T
b00000101 W
1Z
b000000000101 ]
b001100000011 ^
b0000000100000101 `
b0000000000000101 g
0i
1k
b00000011 l
1p
1u
1z
1""
1'"
1,"
b0000000100000101 -"
b001100000011 ."
11"
b00000011 3"
b0000000100000101 <"
b0100000000000010000000 ?"
b0000001100000011 @"
1A"
#220000000
0!
0%
b0000000100000101 '
b1000000000000000011000 6
b0100 @
b1000000000000000011000 A
b0100 C
0D
b0100 E
0F
b1000 H
1L
0M
0P
0T
b00000101 X
0Z
b000100000101 ^
b00000101 h
0k
b00000101 m
0p
b00000101 r
0u
b00000101 w
0z
b00000101 |
0""
b00000101 $"
0'"
0,"
b000100000101 ."
1/"
01"
b1000000000000000011000 ?"
b0000000100000101 @"
0A"
#230000000
1!
1%
b0000001100000011 '
b0000000100000110 0
b000100000101 2
b001100011111 5
b0000000000010110000000 6
b1000 @
b0000000000010110000000 A
b1000 C
1D
b1000 E
1F
b0001 H
0L
1M
b0000000100000110 N
b0000000100000110 O
1P
b001100011111 S
1T
b00000011 X
1Z
b001100000011 ^
b00000011 h
1k
b00000011 m
1p
b00000011 r
1u
b00000011 w
1z
b00000011 |
1""
b00000011 $"
1'"
b0000000100000110 )"
1,"
b001100000011 ."
0/"
11"
b000100000101 2"
b0000000100000110 ;"
b000100000101 ="
b001100011111 >"
b0000000000010110000000 ?"
b0000001100000011 @"
1A"
#240000000
0!
1#
0%
b0000000000000011 '
b0010000000000000010000 6
b0001 @
b0010000000000000010000 A
b0001 C
0D
b0001 E
0F
b0010 H
0M
0P
0T
0Z
b000000000011 ^
1i
0k
0p
0u
0z
0""
0'"
0,"
b000000000011 ."
01"
b0010000000000000010000 ?"
b0000000000000011 @"
0A"
#250000000
1!
1%
b0000001100011111 '
b0000000100000110 1
b0100000000000010000000 6
b0000000000000110 7
b0010 @
b0100000000000010000000 A
b0010 C
1D
b0010 E
1F
b0100 H
1M
1P
b000000000110 R
1T
b00000110 W
b00011111 X
1Z
b000000000110 ]
b001100011111 ^
b0000000100000110 `
b0000000000000110 g
b00011111 h
0i
1k
b00011111 m
1p
b00011111 r
1u
b00011111 w
1z
b00011111 |
1""
b00011111 $"
1'"
1,"
b0000000100000110 -"
b001100011111 ."
11"
b0000000100000110 <"
b0100000000000010000000 ?"
b0000001100011111 @"
1A"
#260000000
0!
0%
b0000000100000110 '
b1000000000000000011000 6
b0100 @
b1000000000000000011000 A
b0100 C
0D
b0100 E
0F
b1000 H
1L
0M
0P
0T
b00000110 X
0Z
b000100000110 ^
b00000110 h
0k
b00000110 m
0p
b00000110 r
0u
b00000110 w
0z
b00000110 |
0""
b00000110 $"
0'"
0,"
b000100000110 ."
1/"
01"
b1000000000000000011000 ?"
b0000000100000110 @"
0A"
#270000000
1!
1%
b0000001100011111 '
b0000000100000111 0
b000100000110 2
b001100000011 5
b0000000000010110000000 6
b1000 @
b0000000000010110000000 A
b1000 C
1D
b1000 E
1F
b0001 H
0L
1M
b0000000100000111 N
b0000000100000111 O
1P
b001100000011 S
1T
b00011111 X
1Z
b001100011111 ^
b00011111 h
1k
b00011111 m
1p
b00011111 r
1u
b00011111 w
1z
b00011111 |
1""
b00011111 $"
1'"
b0000000100000111 )"
1,"
b001100011111 ."
0/"
11"
b000100000110 2"
b0000000100000111 ;"
b000100000110 ="
b001100000011 >"
b0000000000010110000000 ?"
b0000001100011111 @"
1A"
#280000000
0!
0%
b0000000000011111 '
b0010000000000000010000 6
b0001 @
b0010000000000000010000 A
b0001 C
0D
b0001 E
0F
b0010 H
0M
0P
0T
0Z
b000000011111 ^
1i
0k
0p
0u
0z
0""
0'"
0,"
b000000011111 ."
01"
b0010000000000000010000 ?"
b0000000000011111 @"
0A"
#290000000
1!
1%
b0000001100000011 '
b00011111 (
b0000000100000111 1
b0100000000000010000000 6
b0000000000000111 7
b0010 @
b0100000000000010000000 A
b0010 C
1D
b0010 E
1F
b0100 H
1M
1P
b000000000111 R
1T
b00000111 W
b00000011 X
1Z
b000000000111 ]
b001100000011 ^
b0000000100000111 `
b0000000000000111 g
b00000011 h
0i
1k
b00011111 l
b00000011 m
1p
b00000011 r
1u
b00000011 w
1z
b00000011 |
1""
b00000011 $"
1'"
1,"
b0000000100000111 -"
b001100000011 ."
11"
b00011111 3"
b0000000100000111 <"
b0100000000000010000000 ?"
b0000001100000011 @"
1A"
#300000000
0!
0%
b0000000100000111 '
b1000000000000000011000 6
b0100 @
b1000000000000000011000 A
b0100 C
0D
b0100 E
0F
b1000 H
1L
0M
0P
0T
b00000111 X
0Z
b000100000111 ^
b00000111 h
0k
b00000111 m
0p
b00000111 r
0u
b00000111 w
0z
b00000111 |
0""
b00000111 $"
0'"
0,"
b000100000111 ."
1/"
01"
b1000000000000000011000 ?"
b0000000100000111 @"
0A"
#310000000
1!
1%
b0000001100000011 '
b0000000100001000 0
b000100000111 2
b001100011111 5
b0000000000010110000000 6
b1000 @
b0000000000010110000000 A
b1000 C
1D
b1000 E
1F
b0001 H
0L
1M
b0000000100001000 N
b0000000100001000 O
1P
b001100011111 S
1T
b00000011 X
1Z
b001100000011 ^
b00000011 h
1k
b00000011 m
1p
b00000011 r
1u
b00000011 w
1z
b00000011 |
1""
b00000011 $"
1'"
b0000000100001000 )"
1,"
b001100000011 ."
0/"
11"
b000100000111 2"
b0000000100001000 ;"
b000100000111 ="
b001100011111 >"
b0000000000010110000000 ?"
b0000001100000011 @"
1A"
#320000000
0!
0%
b0000000000000011 '
b0010000000000000010000 6
b0001 @
b0010000000000000010000 A
b0001 C
0D
b0001 E
0F
b0010 H
0M
0P
0T
0Z
b000000000011 ^
1i
0k
0p
0u
0z
0""
0'"
0,"
b000000000011 ."
01"
b0010000000000000010000 ?"
b0000000000000011 @"
0A"
#330000000
1!
1%
b0000001100011111 '
b00000011 (
b0000000100001000 1
b0100000000000010000000 6
b0000000000001000 7
b0010 @
b0100000000000010000000 A
b0010 C
1D
b0010 E
1F
b0100 H
1M
1P
b000000001000 R
1T
b00001000 W
b00011111 X
1Z
b000000001000 ]
b001100011111 ^
b0000000100001000 `
b0000000000001000 g
b00011111 h
0i
1k
b00000011 l
b00011111 m
1p
b00011111 r
1u
b00011111 w
1z
b00011111 |
1""
b00011111 $"
1'"
1,"
b0000000100001000 -"
b001100011111 ."
11"
b00000011 3"
b0000000100001000 <"
b0100000000000010000000 ?"
b0000001100011111 @"
1A"
#340000000
0!
0%
b0000000100001000 '
b1000000000000000011000 6
b0100 @
b1000000000000000011000 A
b0100 C
0D
b0100 E
0F
b1000 H
1L
0M
0P
0T
b00001000 X
0Z
b000100001000 ^
b00001000 h
0k
b00001000 m
0p
b00001000 r
0u
b00001000 w
0z
b00001000 |
0""
b00001000 $"
0'"
0,"
b000100001000 ."
1/"
01"
b1000000000000000011000 ?"
b0000000100001000 @"
0A"
#350000000
1!
1%
b0000001100011111 '
b0000000100001001 0
b000100001000 2
b001100000011 5
b0000000000010110000000 6
b1000 @
b0000000000010110000000 A
b1000 C
1D
b1000 E
1F
b0001 H
0L
1M
b0000000100001001 N
b0000000100001001 O
1P
b001100000011 S
1T
b00011111 X
1Z
b001100011111 ^
b00011111 h
1k
b00011111 m
1p
b00011111 r
1u
b00011111 w
1z
b00011111 |
1""
b00011111 $"
1'"
b0000000100001001 )"
1,"
b001100011111 ."
0/"
11"
b000100001000 2"
b0000000100001001 ;"
b000100001000 ="
b001100000011 >"
b0000000000010110000000 ?"
b0000001100011111 @"
1A"
#360000000
0!
0%
b0000000000011111 '
b0010000000000000010000 6
b0001 @
b0010000000000000010000 A
b0001 C
0D
b0001 E
0F
b0010 H
0M
0P
0T
0Z
b000000011111 ^
1i
0k
0p
0u
0z
0""
0'"
0,"
b000000011111 ."
01"
b0010000000000000010000 ?"
b0000000000011111 @"
0A"
#370000000
1!
1%
b0000001100000011 '
b00011111 (
b0000000100001001 1
b0100000000000010000000 6
b0000000000001001 7
b0010 @
b0100000000000010000000 A
b0010 C
1D
b0010 E
1F
b0100 H
1M
1P
b000000001001 R
1T
b00001001 W
b00000011 X
1Z
b000000001001 ]
b001100000011 ^
b0000000100001001 `
b0000000000001001 g
b00000011 h
0i
1k
b00011111 l
b00000011 m
1p
b00000011 r
1u
b00000011 w
1z
b00000011 |
1""
b00000011 $"
1'"
1,"
b0000000100001001 -"
b001100000011 ."
11"
b00011111 3"
b0000000100001001 <"
b0100000000000010000000 ?"
b0000001100000011 @"
1A"
#380000000
0!
0%
b0000000100001001 '
b1000000000000000011000 6
b0100 @
b1000000000000000011000 A
b0100 C
0D
b0100 E
0F
b1000 H
1L
0M
0P
0T
b00001001 X
0Z
b000100001001 ^
b00001001 h
0k
b00001001 m
0p
b00001001 r
0u
b00001001 w
0z
b00001001 |
0""
b00001001 $"
0'"
0,"
b000100001001 ."
1/"
01"
b1000000000000000011000 ?"
b0000000100001001 @"
0A"
#390000000
1!
1%
b0000001100000011 '
b0000000100001010 0
b000100001001 2
b001100011111 5
b0000000000010110000000 6
b1000 @
b0000000000010110000000 A
b1000 C
1D
b1000 E
1F
b0001 H
0L
1M
b0000000100001010 N
b0000000100001010 O
1P
b001100011111 S
1T
b00000011 X
1Z
b001100000011 ^
b00000011 h
1k
b00000011 m
1p
b00000011 r
1u
b00000011 w
1z
b00000011 |
1""
b00000011 $"
1'"
b0000000100001010 )"
1,"
b001100000011 ."
0/"
11"
b000100001001 2"
b0000000100001010 ;"
b000100001001 ="
b001100011111 >"
b0000000000010110000000 ?"
b0000001100000011 @"
1A"
#400000000
0!
0%
b0000000000000011 '
b0010000000000000010000 6
b0001 @
b0010000000000000010000 A
b0001 C
0D
b0001 E
0F
b0010 H
0M
0P
0T
0Z
b000000000011 ^
1i
0k
0p
0u
0z
0""
0'"
0,"
b000000000011 ."
01"
b0010000000000000010000 ?"
b0000000000000011 @"
0A"
#410000000
1!
1%
b0000001100011111 '
b00000011 (
b0000000100001010 1
b0100000000000010000000 6
b0000000000001010 7
b0010 @
b0100000000000010000000 A
b0010 C
1D
b0010 E
1F
b0100 H
1M
1P
b000000001010 R
1T
b00001010 W
b00011111 X
1Z
b000000001010 ]
b001100011111 ^
b0000000100001010 `
b0000000000001010 g
b00011111 h
0i
1k
b00000011 l
b00011111 m
1p
b00011111 r
1u
b00011111 w
1z
b00011111 |
1""
b00011111 $"
1'"
1,"
b0000000100001010 -"
b001100011111 ."
11"
b00000011 3"
b0000000100001010 <"
b0100000000000010000000 ?"
b0000001100011111 @"
1A"
#420000000
0!
0%
b0000000100001010 '
b1000000000000000011000 6
b0100 @
b1000000000000000011000 A
b0100 C
0D
b0100 E
0F
b1000 H
1L
0M
0P
0T
b00001010 X
0Z
b000100001010 ^
b00001010 h
0k
b00001010 m
0p
b00001010 r
0u
b00001010 w
0z
b00001010 |
0""
b00001010 $"
0'"
0,"
b000100001010 ."
1/"
01"
b1000000000000000011000 ?"
b0000000100001010 @"
0A"
#430000000
1!
1%
b0000001100011111 '
b0000000100001011 0
b000100001010 2
b001100000011 5
b0000000000010110000000 6
b1000 @
b0000000000010110000000 A
b1000 C
1D
b1000 E
1F
b0001 H
0L
1M
b0000000100001011 N
b0000000100001011 O
1P
b001100000011 S
1T
b00011111 X
1Z
b001100011111 ^
b00011111 h
1k
b00011111 m
1p
b00011111 r
1u
b00011111 w
1z
b00011111 |
1""
b00011111 $"
1'"
b0000000100001011 )"
1,"
b001100011111 ."
0/"
11"
b000100001010 2"
b0000000100001011 ;"
b000100001010 ="
b001100000011 >"
b0000000000010110000000 ?"
b0000001100011111 @"
1A"
#440000000
0!
0%
b0000000000011111 '
b0010000000000000010000 6
b0001 @
b0010000000000000010000 A
b0001 C
0D
b0001 E
0F
b0010 H
0M
0P
0T
0Z
b000000011111 ^
1i
0k
0p
0u
0z
0""
0'"
0,"
b000000011111 ."
01"
b0010000000000000010000 ?"
b0000000000011111 @"
0A"
